{
  "count": 12,
  "next": "https://api.pandadoc.com/public/v1/documents?page=2",
  "previous": null,
  "results": [
    {
      "id": "UgNqHrtsGFqTSk8wtdzqPM",
      "name": "Sample Template",
      "date_created": "2014-10-06T08:42:13.836022Z",
      "date_modified": "2016-03-04T02:21:13.963750Z"
    }
  ]
}
